sim/build/FFT.block_test.FFT_test__test_small_fft_32_16_2.vcd
$date
  Sat Dec  3 16:56:54 2022
$end
$version
  PyMTL 3 (Mamba)
$end
$timescale
 10ps
$end

$scope module top $end
  $var reg 1 % reset $end
  $var reg 1 ' clk $end
  $scope module sink $end
    $var reg 64 & recv.msg $end
    $var reg 1 ' clk $end
    $var reg 1 ! recv.rdy $end
    $var reg 1 % reset $end
    $var reg 1 $ recv.val $end
  $upscope $end
  $scope module src $end
    $var reg 1 # send.val $end
    $var reg 64 " send.msg $end
    $var reg 1 % reset $end
    $var reg 1 ( send.rdy $end
    $var reg 1 ' clk $end
  $upscope $end
  $scope module fft $end
    $var reg 64 " recv.msg $end
    $var reg 1 ) s_DOT_recv_DOT_val $end
    $var reg 1 ' clk $end
    $var reg 1 * s_DOT_reset $end
    $var reg 1 + s_DOT_recv_DOT_rdy $end
    $var reg 64 , s_DOT_recv_DOT_msg $end
    $var reg 1 # recv.val $end
    $var reg 1 % reset $end
    $var reg 1 $ send.val $end
    $var reg 1 - s_DOT_send_DOT_rdy $end
    $var reg 1 . s_DOT_send_DOT_val $end
    $var reg 64 / s_DOT_send_DOT_msg $end
    $var reg 1 ( recv.rdy $end
    $var reg 64 & send.msg $end
    $var reg 1 ! send.rdy $end
  $upscope $end
$upscope $end
$enddefinitions $end

b0b0 !
b0b0000000000000000000000000000000000000000000000000000000000000000 "
b0b0 #
b0b0 $
b0b0 %
b0b0000000000000000000000000000000000000000000000000000000000000000 &
b0b0 '
b0b0 (
b0b0 )
b0b0 *
b0b0 +
b0b0000000000000000000000000000000000000000000000000000000000000000 ,
b0b0 -
b0b0 .
b0b0000000000000000000000000000000000000000000000000000000000000000 /

#0
b0b1 '

b0b1 %
b0b1 *
b0b0000000000000000000000000000000000000000000000000000000000000000 ,
b0b0 -
b0b0000000000000000000000000000000000000000000000000000000000000000 /

#50
b0b0 '
#100
b0b1 '

b0b1 (
b0b1 +

#150
b0b0 '
#200
b0b1 '


#250
b0b0 '
#300
b0b1 '

b0b0 %
b0b0 *

#350
b0b0 '
#400
b0b1 '


#450
b0b0 '
#500
b0b1 '


#550
b0b0 '
#600
b0b1 '


#650
b0b0 '
#700
b0b1 '

b0b1 !
b0b0000000000000001000000000000000000000000000000010000000000000000 "
b0b1 #
b0b1 )
b0b0000000000000001000000000000000000000000000000010000000000000000 ,
b0b1 -

#750
b0b0 '
#800
b0b1 '

b0b0 #
b0b0000000000000001000000000000000000000000000000010000000000000000 &
b0b0 (
b0b0 )
b0b0 +
b0b0000000000000001000000000000000000000000000000010000000000000000 /

#850
b0b0 '
#900
b0b1 '


#950
b0b0 '
#1000
b0b1 '


#1050
b0b0 '
#1100
b0b1 '


#1150
b0b0 '
#1200
b0b1 '


#1250
b0b0 '
#1300
b0b1 '


#1350
b0b0 '
#1400
b0b1 '


#1450
b0b0 '
#1500
b0b1 '


#1550
b0b0 '
#1600
b0b1 '


#1650
b0b0 '
#1700
b0b1 '


#1750
b0b0 '
#1800
b0b1 '


#1850
b0b0 '
#1900
b0b1 '


#1950
b0b0 '
#2000
b0b1 '


#2050
b0b0 '
#2100
b0b1 '


#2150
b0b0 '
#2200
b0b1 '


#2250
b0b0 '
#2300
b0b1 '


#2350
b0b0 '
#2400
b0b1 '


#2450
b0b0 '
#2500
b0b1 '


#2550
b0b0 '
#2600
b0b1 '


#2650
b0b0 '
#2700
b0b1 '


#2750
b0b0 '
#2800
b0b1 '


#2850
b0b0 '
#2900
b0b1 '


#2950
b0b0 '
#3000
b0b1 '


#3050
b0b0 '
#3100
b0b1 '


#3150
b0b0 '
#3200
b0b1 '


#3250
b0b0 '
#3300
b0b1 '


#3350
b0b0 '
#3400
b0b1 '


#3450
b0b0 '
#3500
b0b1 '


#3550
b0b0 '
#3600
b0b1 '


#3650
b0b0 '
#3700
b0b1 '


#3750
b0b0 '
#3800
b0b1 '


#3850
b0b0 '
#3900
b0b1 '


#3950
b0b0 '
#4000
b0b1 '


#4050
b0b0 '
#4100
b0b1 '


#4150
b0b0 '
#4200
b0b1 '


#4250
b0b0 '
#4300
b0b1 '

b0b1 $
b0b0000000000000000000000000000000000000000000000100000000000000000 &
b0b1 .
b0b0000000000000000000000000000000000000000000000100000000000000000 /

#4350
b0b0 '
#4400
b0b1 '

b0b0 !
b0b1 (
b0b1 +
b0b0 -

#4450
b0b0 '
#4500
b0b1 '


#4550
b0b0 '
#4600
b0b1 '


#4650
b0b0 '
#4700
b0b1 '


#4750
b0b0 '
#4800
b0b1 '


#4850
b0b0 '
#4900
b0b1 '

