sim/build/FFT.block_test.FFT_test__test_eight_point_random.vcd
$date
  Wed Dec 21 15:03:58 2022
$end
$version
  PyMTL 3 (Mamba)
$end
$timescale
 10ps
$end

$scope module top $end
  $var reg 1 ! reset $end
  $var reg 1 & clk $end
  $scope module src $end
    $var reg 1 ' send.rdy $end
    $var reg 1 ! reset $end
    $var reg 1 $ send.val $end
    $var reg 1 & clk $end
    $var reg 256 ( send.msg $end
  $upscope $end
  $scope module sink $end
    $var reg 1 # recv.val $end
    $var reg 1 " recv.rdy $end
    $var reg 1 ! reset $end
    $var reg 256 % recv.msg $end
    $var reg 1 & clk $end
  $upscope $end
  $scope module fft $end
    $var reg 1 ) s_DOT_recv_DOT_val $end
    $var reg 256 * s_DOT_send_DOT_msg $end
    $var reg 1 & clk $end
    $var reg 1 + s_DOT_reset $end
    $var reg 1 " send.rdy $end
    $var reg 1 , s_DOT_send_DOT_rdy $end
    $var reg 1 - s_DOT_recv_DOT_rdy $end
    $var reg 1 # send.val $end
    $var reg 1 . s_DOT_send_DOT_val $end
    $var reg 256 / s_DOT_recv_DOT_msg $end
    $var reg 256 ( recv.msg $end
    $var reg 256 % send.msg $end
    $var reg 1 $ recv.val $end
    $var reg 1 ' recv.rdy $end
    $var reg 1 ! reset $end
  $upscope $end
$upscope $end
$enddefinitions $end

b0b0 !
b0b0 "
b0b0 #
b0b0 $
b0b0000000000000000000000000000000000000000000000000000000000000000000000000000000000000000000000000000000000000000000000000000000000000000000000000000000000000000000000000000000000000000000000000000000000000000000000000000000000000000000000000000000000000000 %
b0b0 &
b0b0 '
b0b0000000000000000000000000000000000000000000000000000000000000000000000000000000000000000000000000000000000000000000000000000000000000000000000000000000000000000000000000000000000000000000000000000000000000000000000000000000000000000000000000000000000000000 (
b0b0 )
b0b0000000000000000000000000000000000000000000000000000000000000000000000000000000000000000000000000000000000000000000000000000000000000000000000000000000000000000000000000000000000000000000000000000000000000000000000000000000000000000000000000000000000000000 *
b0b0 +
b0b0 ,
b0b0 -
b0b0 .
b0b0000000000000000000000000000000000000000000000000000000000000000000000000000000000000000000000000000000000000000000000000000000000000000000000000000000000000000000000000000000000000000000000000000000000000000000000000000000000000000000000000000000000000000 /

#0
b0b1 &

b0b1 !
b0b0000000000000000000000000000000000000000000000000000000000000000000000000000000000000000000000000000000000000000000000000000000000000000000000000000000000000000000000000000000000000000000000000000000000000000000000000000000000000000000000000000000000000000 (
b0b0 )
b0b0000000000000000000000000000000000000000000000000000000000000000000000000000000000000000000000000000000000000000000000000000000000000000000000000000000000000000000000000000000000000000000000000000000000000000000000000000000000000000000000000000000000000000 *
b0b1 +
b0b0000000000000000000000000000000000000000000000000000000000000000000000000000000000000000000000000000000000000000000000000000000000000000000000000000000000000000000000000000000000000000000000000000000000000000000000000000000000000000000000000000000000000000 /

#50
b0b0 &
#100
b0b1 &

b0b1 '
b0b1 -

#150
b0b0 &
#200
b0b1 &


#250
b0b0 &
#300
b0b1 &

b0b0 !
b0b0 +

#350
b0b0 &
#400
b0b1 &


#450
b0b0 &
#500
b0b1 &


#550
b0b0 &
#600
b0b1 &


#650
b0b0 &
#700
b0b1 &

b0b1 "
b0b1 $
b0b0 '
b0b0000000000000000000000000000001000000000000000000000000000000010000000000000000000000000000000100000000000000000000000000000001000000000000000000000000000000010000000000000000000000000000000100000000000000000000000000000001000000000000000000000000000000010 (
b0b1 )
b0b1 ,
b0b0 -
b0b0000000000000000000000000000001000000000000000000000000000000010000000000000000000000000000000100000000000000000000000000000001000000000000000000000000000000010000000000000000000000000000000100000000000000000000000000000001000000000000000000000000000000010 /

#750
b0b0 &
#800
b0b1 &


#850
b0b0 &
#900
b0b1 &


#950
b0b0 &
#1000
b0b1 &


#1050
b0b0 &
#1100
b0b1 &


#1150
b0b0 &
#1200
b0b1 &


#1250
b0b0 &
#1300
b0b1 &


#1350
b0b0 &
#1400
b0b1 &


#1450
b0b0 &
#1500
b0b1 &


#1550
b0b0 &
#1600
b0b1 &


#1650
b0b0 &
#1700
b0b1 &


#1750
b0b0 &
#1800
b0b1 &


#1850
b0b0 &
#1900
b0b1 &


#1950
b0b0 &
#2000
b0b1 &


#2050
b0b0 &
#2100
b0b1 &


#2150
b0b0 &
#2200
b0b1 &


#2250
b0b0 &
#2300
b0b1 &


#2350
b0b0 &
#2400
b0b1 &


#2450
b0b0 &
#2500
b0b1 &


#2550
b0b0 &
#2600
b0b1 &


#2650
b0b0 &
#2700
b0b1 &


#2750
b0b0 &
#2800
b0b1 &


#2850
b0b0 &
#2900
b0b1 &


#2950
b0b0 &
#3000
b0b1 &


#3050
b0b0 &
#3100
b0b1 &


#3150
b0b0 &
#3200
b0b1 &


#3250
b0b0 &
#3300
b0b1 &


#3350
b0b0 &
#3400
b0b1 &


#3450
b0b0 &
#3500
b0b1 &


#3550
b0b0 &
#3600
b0b1 &


#3650
b0b0 &
#3700
b0b1 &


#3750
b0b0 &
#3800
b0b1 &


#3850
b0b0 &
#3900
b0b1 &


#3950
b0b0 &
#4000
b0b1 &


#4050
b0b0 &
#4100
b0b1 &


#4150
b0b0 &
#4200
b0b1 &


#4250
b0b0 &
#4300
b0b1 &


#4350
b0b0 &
#4400
b0b1 &


#4450
b0b0 &
#4500
b0b1 &


#4550
b0b0 &
#4600
b0b1 &


#4650
b0b0 &
#4700
b0b1 &


#4750
b0b0 &
#4800
b0b1 &


#4850
b0b0 &
#4900
b0b1 &


#4950
b0b0 &
#5000
b0b1 &


#5050
b0b0 &
#5100
b0b1 &


#5150
b0b0 &
#5200
b0b1 &


#5250
b0b0 &
#5300
b0b1 &


#5350
b0b0 &
#5400
b0b1 &


#5450
b0b0 &
#5500
b0b1 &


#5550
b0b0 &
#5600
b0b1 &


#5650
b0b0 &
#5700
b0b1 &


#5750
b0b0 &
#5800
b0b1 &


#5850
b0b0 &
#5900
b0b1 &


#5950
b0b0 &
#6000
b0b1 &


#6050
b0b0 &
#6100
b0b1 &


#6150
b0b0 &
#6200
b0b1 &


#6250
b0b0 &
#6300
b0b1 &


#6350
b0b0 &
#6400
b0b1 &


#6450
b0b0 &
#6500
b0b1 &


#6550
b0b0 &
#6600
b0b1 &


#6650
b0b0 &
#6700
b0b1 &


#6750
b0b0 &
#6800
b0b1 &


#6850
b0b0 &
#6900
b0b1 &


#6950
b0b0 &
#7000
b0b1 &


#7050
b0b0 &
#7100
b0b1 &


#7150
b0b0 &
#7200
b0b1 &


#7250
b0b0 &
#7300
b0b1 &


#7350
b0b0 &
#7400
b0b1 &


#7450
b0b0 &
#7500
b0b1 &


#7550
b0b0 &
#7600
b0b1 &


#7650
b0b0 &
#7700
b0b1 &


#7750
b0b0 &
#7800
b0b1 &


#7850
b0b0 &
#7900
b0b1 &


#7950
b0b0 &
#8000
b0b1 &

b0b0000000000000000000000000000000000000000000000000000000000000000000000000000000000000000000000000000000000000000000000000000100000000000000000000000000000000000000000000000000000000000000000000000000000000000000000000000000000000000000000000000000000001000 %
b0b0000000000000000000000000000000000000000000000000000000000000000000000000000000000000000000000000000000000000000000000000000100000000000000000000000000000000000000000000000000000000000000000000000000000000000000000000000000000000000000000000000000000001000 *

#8050
b0b0 &
#8100
b0b1 &


#8150
b0b0 &
#8200
b0b1 &


#8250
b0b0 &
#8300
b0b1 &


#8350
b0b0 &
#8400
b0b1 &


#8450
b0b0 &
#8500
b0b1 &


#8550
b0b0 &
#8600
b0b1 &


#8650
b0b0 &
#8700
b0b1 &


#8750
b0b0 &
#8800
b0b1 &


#8850
b0b0 &
#8900
b0b1 &


#8950
b0b0 &
#9000
b0b1 &


#9050
b0b0 &
#9100
b0b1 &


#9150
b0b0 &
#9200
b0b1 &


#9250
b0b0 &
#9300
b0b1 &


#9350
b0b0 &
#9400
b0b1 &


#9450
b0b0 &
#9500
b0b1 &


#9550
b0b0 &
#9600
b0b1 &


#9650
b0b0 &
#9700
b0b1 &


#9750
b0b0 &
#9800
b0b1 &


#9850
b0b0 &
#9900
b0b1 &


#9950
b0b0 &
#10000
b0b1 &


#10050
b0b0 &
#10100
b0b1 &


#10150
b0b0 &
#10200
b0b1 &


#10250
b0b0 &
#10300
b0b1 &


#10350
b0b0 &
#10400
b0b1 &


#10450
b0b0 &
#10500
b0b1 &


#10550
b0b0 &
#10600
b0b1 &


#10650
b0b0 &
#10700
b0b1 &


#10750
b0b0 &
#10800
b0b1 &


#10850
b0b0 &
#10900
b0b1 &


#10950
b0b0 &
#11000
b0b1 &


#11050
b0b0 &
#11100
b0b1 &


#11150
b0b0 &
#11200
b0b1 &


#11250
b0b0 &
#11300
b0b1 &


#11350
b0b0 &
#11400
b0b1 &


#11450
b0b0 &
#11500
b0b1 &

b0b1 #
b0b0000000000000000000000000000000000000000000000000000000000000000000000000000000000000000000000000000000000000000000000000000000000000000000000000000000000000000000000000000000000000000000000000000000000000000000000000000000000000000000000000000000000010000 %
b0b0000000000000000000000000000000000000000000000000000000000000000000000000000000000000000000000000000000000000000000000000000000000000000000000000000000000000000000000000000000000000000000000000000000000000000000000000000000000000000000000000000000000010000 *
b0b1 .

#11550
b0b0 &
#11600
b0b1 &

b0b0 "
b0b0 ,

#11650
b0b0 &
#11700
b0b1 &

b0b0 #
b0b0000000000000000000000000000000000000000000000000000000000000000000000000000000000000000000000000000000000000000000000000000100000000000000000000000000000000000000000000000000000000000000000000000000000000000000000000000000000000000000000000000000000001000 %
b0b0000000000000000000000000000000000000000000000000000000000000000000000000000000000000000000000000000000000000000000000000000100000000000000000000000000000000000000000000000000000000000000000000000000000000000000000000000000000000000000000000000000000001000 *
b0b0 .

#11750
b0b0 &
#11800
b0b1 &

b0b1 '
b0b1 -

#11850
b0b0 &
#11900
b0b1 &

b0b0 $
b0b0 '
b0b0 )
b0b0 -

#11950
b0b0 &
#12000
b0b1 &


#12050
b0b0 &
#12100
b0b1 &


#12150
b0b0 &
#12200
b0b1 &

