sim/build/FFT.block_test.FFT_test__test_two_point_dc_generated_top_fft.verilator1.vcd
$version Generated by VerilatedVcd $end
$date Tue Dec 20 21:28:05 2022
 $end
$timescale  10ps $end

 $scope module TOP $end
  $var wire  1 ]- clk [0:0] $end
  $var wire 64 m- recv_msg [63:0] $end
  $var wire  1 }- recv_rdy [0:0] $end
  $var wire  1 '. recv_val [0:0] $end
  $var wire  1 e- reset [0:0] $end
  $var wire 64 /. send_msg [63:0] $end
  $var wire  1 ?. send_rdy [0:0] $end
  $var wire  1 G. send_val [0:0] $end
  $scope module CombinationalFFT $end
   $var wire  1 ]- clk [0:0] $end
   $var wire 64 m- recv_msg [63:0] $end
   $var wire  1 }- recv_rdy [0:0] $end
   $var wire  1 '. recv_val [0:0] $end
   $var wire  1 e- reset [0:0] $end
   $var wire 64 /. send_msg [63:0] $end
   $var wire  1 ?. send_rdy [0:0] $end
   $var wire  1 G. send_val [0:0] $end
   $scope module v $end
    $var wire 32 O. BIT_WIDTH [31:0] $end
    $var wire 32 W. DECIMAL_PT [31:0] $end
    $var wire 32 _. N_SAMPLES [31:0] $end
    $var wire  1 ]- clk $end
    $var wire 64 m- recv_msg [63:0] $end
    $var wire 32 U% recv_msg_intermediate(0) [31:0] $end
    $var wire 32 V% recv_msg_intermediate(1) [31:0] $end
    $var wire  1 }- recv_rdy $end
    $var wire  1 '. recv_val $end
    $var wire  1 e- reset $end
    $var wire 64 /. send_msg [63:0] $end
    $var wire 32 e% send_msg_intermediate(0) [31:0] $end
    $var wire 32 f% send_msg_intermediate(1) [31:0] $end
    $var wire  1 ?. send_rdy $end
    $var wire  1 G. send_val $end
    $scope module comb_fft $end
     $var wire 32 O. BIT_WIDTH [31:0] $end
     $var wire 32 W. DECIMAL_PT [31:0] $end
     $var wire 32 _. N_SAMPLES [31:0] $end
     $var wire  1 ]- clk $end
     $var wire 32 %! complex_msg(0)(0) [31:0] $end
     $var wire 32 -! complex_msg(0)(1) [31:0] $end
     $var wire 32 5! complex_msg(1)(0) [31:0] $end
     $var wire 32 =! complex_msg(1)(1) [31:0] $end
     $var wire  2 w& imm [1:0] $end
     $var wire  2 !' imm2 [1:0] $end
     $var wire  1 W& rdy_in(0)(0) $end
     $var wire  1 _& rdy_in(0)(1) $end
     $var wire  1 g& rdy_in(1)(0) $end
     $var wire  1 o& rdy_in(1)(1) $end
     $var wire 32 s$ real_msg(0)(0) [31:0] $end
     $var wire 32 {$ real_msg(0)(1) [31:0] $end
     $var wire 32 %% real_msg(1)(0) [31:0] $end
     $var wire 32 -% real_msg(1)(1) [31:0] $end
     $var wire 32 u% recv_msg(0) [31:0] $end
     $var wire 32 v% recv_msg(1) [31:0] $end
     $var wire  1 }- recv_rdy $end
     $var wire  1 '. recv_val $end
     $var wire  1 e- reset $end
     $var wire 32 '& send_msg(0) [31:0] $end
     $var wire 32 (& send_msg(1) [31:0] $end
     $var wire  1 ?. send_rdy $end
     $var wire  1 G. send_val $end
     $var wire 32 # sine_wave_out(0) [31:0] $end
     $var wire 32 $ sine_wave_out(1) [31:0] $end
     $var wire  1 7& val_in(0)(0) $end
     $var wire  1 ?& val_in(0)(1) $end
     $var wire  1 G& val_in(1)(0) $end
     $var wire  1 O& val_in(1)(1) $end
     $scope module genblk2 $end
      $scope module genblk1 $end
       $scope module SineWave $end
        $var wire 32 C sine_wave_out(0) [31:0] $end
        $var wire 32 D sine_wave_out(1) [31:0] $end
       $upscope $end
      $upscope $end
     $upscope $end
     $scope module genblk3(0) $end
      $var wire 32 U! butterfly_in_imaginary(0) [31:0] $end
      $var wire 32 V! butterfly_in_imaginary(1) [31:0] $end
      $var wire 32 )' butterfly_in_real(0) [31:0] $end
      $var wire 32 *' butterfly_in_real(1) [31:0] $end
      $var wire 32 e! butterfly_out_imaginary(0) [31:0] $end
      $var wire 32 f! butterfly_out_imaginary(1) [31:0] $end
      $var wire 32 E! butterfly_out_real(0) [31:0] $end
      $var wire 32 F! butterfly_out_real(1) [31:0] $end
      $var wire  1 5% rdy_interior_in(0) $end
      $var wire  1 6% rdy_interior_in(1) $end
      $var wire  1 I' rdy_interior_out(0) $end
      $var wire  1 J' rdy_interior_out(1) $end
      $var wire 32 ; twiddle_imaginary(0) [31:0] $end
      $var wire 32 3 twiddle_real(0) [31:0] $end
      $var wire  1 9' val_interior_in(0) $end
      $var wire  1 :' val_interior_in(1) $end
      $var wire  1 E% val_interior_out(0) $end
      $var wire  1 F% val_interior_out(1) $end
      $scope module genblk1(0) $end
       $scope module bfu_in $end
        $var wire 32 7" ac [31:0] $end
        $var wire 32 k( ar [31:0] $end
        $var wire 32 ?" bc [31:0] $end
        $var wire 32 s( br [31:0] $end
        $var wire 32 u) cc [31:0] $end
        $var wire  1 ]- clk $end
        $var wire 32 m) cr [31:0] $end
        $var wire 32 W. d [31:0] $end
        $var wire 32 '* dc [31:0] $end
        $var wire 32 }) dr [31:0] $end
        $var wire  1 /* mul_rdy $end
        $var wire 32 !/ mult [31:0] $end
        $var wire 32 O. n [31:0] $end
        $var wire  1 e) recv_rdy $end
        $var wire  1 [( recv_val $end
        $var wire  1 e- reset $end
        $var wire  1 c( send_rdy $end
        $var wire  1 ]) send_val $end
        $var wire 32 O" tc [31:0] $end
        $var wire 32 G" tr [31:0] $end
        $var wire 32 [ wc [31:0] $end
        $var wire 32 S wr [31:0] $end
        $scope module genblk1 $end
         $scope module mul $end
          $var wire 32 O* a [31:0] $end
          $var wire 32 G* ab [31:0] $end
          $var wire  1 o* ab_rdy $end
          $var wire 32 ?" ac [31:0] $end
          $var wire 32 ?* acbc [31:0] $end
          $var wire  1 g* acbc_rdy $end
          $var wire 32 9+ act [31:0] $end
          $var wire 32 s( ar [31:0] $end
          $var wire 32 7* arbr [31:0] $end
          $var wire  1 _* arbr_rdy $end
          $var wire 32 A+ art [31:0] $end
          $var wire 32 W* b [31:0] $end
          $var wire 32 [ bc [31:0] $end
          $var wire 32 I+ bct [31:0] $end
          $var wire 32 S br [31:0] $end
          $var wire 32 Q+ brt [31:0] $end
          $var wire 32 O" cc [31:0] $end
          $var wire  1 ]- clk $end
          $var wire 32 G" cr [31:0] $end
          $var wire 32 W. d [31:0] $end
          $var wire  1 !+ m1_recv_rdy $end
          $var wire  1 )+ m2_recv_rdy $end
          $var wire  1 1+ m3_recv_rdy $end
          $var wire 32 O. n [31:0] $end
          $var wire  1 W" recv_rdy $end
          $var wire  1 [( recv_val $end
          $var wire  1 e- reset $end
          $var wire  1 w* sab_rdy $end
          $var wire  1 )/ send_rdy $end
          $var wire  1 /* send_val $end
          $scope module m1 $end
           $var wire 32 A+ a [31:0] $end
           $var wire 32 Q+ b [31:0] $end
           $var wire 32 7* c [31:0] $end
           $var wire  1 ]- clk $end
           $var wire 32 W. d [31:0] $end
           $var wire 48 a+ ha [47:0] $end
           $var wire 32 Y+ hb [31:0] $end
           $var wire 32 1/ hc [31:0] $end
           $var wire 32 O. n [31:0] $end
           $var wire  1 q+ rdy $end
           $var wire  1 !+ recv_rdy $end
           $var wire  1 w* recv_val $end
           $var wire  1 e- reset $end
           $var wire  1 )/ send_rdy $end
           $var wire  1 _* send_val $end
           $var wire 32 !/ sign [31:0] $end
           $scope module cinI $end
            $var wire 48 [, acc [47:0] $end
            $var wire  6 k, counter [5:0] $end
            $var wire 32 W. d [31:0] $end
            $var wire 32 O. n [31:0] $end
           $upscope $end
           $scope module ctI $end
            $var wire 48 C$ acc [47:0] $end
            $var wire  6 s, counter [5:0] $end
            $var wire 32 W. d [31:0] $end
            $var wire 32 O. n [31:0] $end
           $upscope $end
           $scope module mult $end
            $var wire 48 a+ a [47:0] $end
            $var wire 32 Y+ b [31:0] $end
            $var wire 32 W. d [31:0] $end
            $var wire 32 O. n [31:0] $end
            $var wire  1 q+ rdy $end
            $var wire 32 !/ sign [31:0] $end
            $var wire 48 _" tmp [47:0] $end
            $var wire 64 o" tt [63:0] $end
            $scope module in $end
             $var wire 48 [, acc [47:0] $end
             $var wire  6 k, counter [5:0] $end
             $var wire 32 W. d [31:0] $end
             $var wire 32 O. n [31:0] $end
            $upscope $end
            $scope module out $end
             $var wire 48 C$ acc [47:0] $end
             $var wire  6 s, counter [5:0] $end
             $var wire 32 W. d [31:0] $end
             $var wire 32 O. n [31:0] $end
            $upscope $end
           $upscope $end
          $upscope $end
          $scope module m2 $end
           $var wire 32 9+ a [31:0] $end
           $var wire 32 I+ b [31:0] $end
           $var wire 32 ?* c [31:0] $end
           $var wire  1 ]- clk $end
           $var wire 32 W. d [31:0] $end
           $var wire 48 #, ha [47:0] $end
           $var wire 32 y+ hb [31:0] $end
           $var wire 32 9/ hc [31:0] $end
           $var wire 32 O. n [31:0] $end
           $var wire  1 3, rdy $end
           $var wire  1 )+ recv_rdy $end
           $var wire  1 w* recv_val $end
           $var wire  1 e- reset $end
           $var wire  1 )/ send_rdy $end
           $var wire  1 g* send_val $end
           $var wire 32 !/ sign [31:0] $end
           $scope module cinI $end
            $var wire 48 {, acc [47:0] $end
            $var wire  6 -- counter [5:0] $end
            $var wire 32 W. d [31:0] $end
            $var wire 32 O. n [31:0] $end
           $upscope $end
           $scope module ctI $end
            $var wire 48 S$ acc [47:0] $end
            $var wire  6 5- counter [5:0] $end
            $var wire 32 W. d [31:0] $end
            $var wire 32 O. n [31:0] $end
           $upscope $end
           $scope module mult $end
            $var wire 48 #, a [47:0] $end
            $var wire 32 y+ b [31:0] $end
            $var wire 32 W. d [31:0] $end
            $var wire 32 O. n [31:0] $end
            $var wire  1 3, rdy $end
            $var wire 32 !/ sign [31:0] $end
            $var wire 48 !# tmp [47:0] $end
            $var wire 64 1# tt [63:0] $end
            $scope module in $end
             $var wire 48 {, acc [47:0] $end
             $var wire  6 -- counter [5:0] $end
             $var wire 32 W. d [31:0] $end
             $var wire 32 O. n [31:0] $end
            $upscope $end
            $scope module out $end
             $var wire 48 S$ acc [47:0] $end
             $var wire  6 5- counter [5:0] $end
             $var wire 32 W. d [31:0] $end
             $var wire 32 O. n [31:0] $end
            $upscope $end
           $upscope $end
          $upscope $end
          $scope module m3 $end
           $var wire 32 O* a [31:0] $end
           $var wire 32 W* b [31:0] $end
           $var wire 32 G* c [31:0] $end
           $var wire  1 ]- clk $end
           $var wire 32 W. d [31:0] $end
           $var wire 48 C, ha [47:0] $end
           $var wire 32 ;, hb [31:0] $end
           $var wire 32 A/ hc [31:0] $end
           $var wire 32 O. n [31:0] $end
           $var wire  1 S, rdy $end
           $var wire  1 1+ recv_rdy $end
           $var wire  1 w* recv_val $end
           $var wire  1 e- reset $end
           $var wire  1 )/ send_rdy $end
           $var wire  1 o* send_val $end
           $var wire 32 !/ sign [31:0] $end
           $scope module cinI $end
            $var wire 48 =- acc [47:0] $end
            $var wire  6 M- counter [5:0] $end
            $var wire 32 W. d [31:0] $end
            $var wire 32 O. n [31:0] $end
           $upscope $end
           $scope module ctI $end
            $var wire 48 c$ acc [47:0] $end
            $var wire  6 U- counter [5:0] $end
            $var wire 32 W. d [31:0] $end
            $var wire 32 O. n [31:0] $end
           $upscope $end
           $scope module mult $end
            $var wire 48 C, a [47:0] $end
            $var wire 32 ;, b [31:0] $end
            $var wire 32 W. d [31:0] $end
            $var wire 32 O. n [31:0] $end
            $var wire  1 S, rdy $end
            $var wire 32 !/ sign [31:0] $end
            $var wire 48 A# tmp [47:0] $end
            $var wire 64 Q# tt [63:0] $end
            $scope module in $end
             $var wire 48 =- acc [47:0] $end
             $var wire  6 M- counter [5:0] $end
             $var wire 32 W. d [31:0] $end
             $var wire 32 O. n [31:0] $end
            $upscope $end
            $scope module out $end
             $var wire 48 c$ acc [47:0] $end
             $var wire  6 U- counter [5:0] $end
             $var wire 32 W. d [31:0] $end
             $var wire 32 O. n [31:0] $end
            $upscope $end
           $upscope $end
          $upscope $end
         $upscope $end
        $upscope $end
       $upscope $end
      $upscope $end
      $scope module twiddle_generator $end
       $var wire 32 O. BIT_WIDTH [31:0] $end
       $var wire 32 W. DECIMAL_PT [31:0] $end
       $var wire 32 _. SIZE_FFT [31:0] $end
       $var wire 32 w. STAGE_FFT [31:0] $end
       $var wire 32 c sine_wave_in(0) [31:0] $end
       $var wire 32 d sine_wave_in(1) [31:0] $end
       $var wire 32 Q/ trace [31:0] $end
       $var wire 32 Y/ trace2 [31:0] $end
       $var wire 32 Q/ trace3 [31:0] $end
       $var wire 32 Y/ trace4 [31:0] $end
       $var wire 32 { twiddle_imaginary(0) [31:0] $end
       $var wire 32 s twiddle_real(0) [31:0] $end
      $upscope $end
      $scope module xbar_in_1 $end
       $var wire 32 O. BIT_WIDTH [31:0] $end
       $var wire 32 !/ FRONT [31:0] $end
       $var wire 32 _. SIZE_FFT [31:0] $end
       $var wire 32 w. STAGE_FFT [31:0] $end
       $var wire 32 u! recv_imaginary(0) [31:0] $end
       $var wire 32 v! recv_imaginary(1) [31:0] $end
       $var wire  1 y' recv_rdy(0) $end
       $var wire  1 z' recv_rdy(1) $end
       $var wire 32 Y' recv_real(0) [31:0] $end
       $var wire 32 Z' recv_real(1) [31:0] $end
       $var wire  1 i' recv_val(0) $end
       $var wire  1 j' recv_val(1) $end
       $var wire 32 '" send_imaginary(0) [31:0] $end
       $var wire 32 (" send_imaginary(1) [31:0] $end
       $var wire  1 K( send_rdy(0) $end
       $var wire  1 L( send_rdy(1) $end
       $var wire 32 +( send_real(0) [31:0] $end
       $var wire 32 ,( send_real(1) [31:0] $end
       $var wire  1 ;( send_val(0) $end
       $var wire  1 <( send_val(1) $end
      $upscope $end
      $scope module xbar_out_1 $end
       $var wire 32 O. BIT_WIDTH [31:0] $end
       $var wire 32 I/ FRONT [31:0] $end
       $var wire 32 _. SIZE_FFT [31:0] $end
       $var wire 32 w. STAGE_FFT [31:0] $end
       $var wire 32 q# recv_imaginary(0) [31:0] $end
       $var wire 32 r# recv_imaginary(1) [31:0] $end
       $var wire  1 -) recv_rdy(0) $end
       $var wire  1 .) recv_rdy(1) $end
       $var wire 32 a# recv_real(0) [31:0] $end
       $var wire 32 b# recv_real(1) [31:0] $end
       $var wire  1 {( recv_val(0) $end
       $var wire  1 |( recv_val(1) $end
       $var wire 32 3$ send_imaginary(0) [31:0] $end
       $var wire 32 4$ send_imaginary(1) [31:0] $end
       $var wire  1 M) send_rdy(0) $end
       $var wire  1 N) send_rdy(1) $end
       $var wire 32 #$ send_real(0) [31:0] $end
       $var wire 32 $$ send_real(1) [31:0] $end
       $var wire  1 =) send_val(0) $end
       $var wire  1 >) send_val(1) $end
      $upscope $end
     $upscope $end
     $scope module unnamedblk1 $end
      $var wire 32 o. i [31:0] $end
     $upscope $end
     $scope module unnamedblk2 $end
      $var wire 32 o. i [31:0] $end
     $upscope $end
    $upscope $end
    $scope module unnamedblk1 $end
     $var wire 32 g. i [31:0] $end
    $upscope $end
   $upscope $end
  $upscope $end
 $upscope $end
$enddefinitions $end


#50
b00000000000000000000000000000000 #
b00000000000000000000000000000000 $
b00000000000000010000000000000000 3
b00000000000000000000000000000000 ;
b00000000000000000000000000000000 C
b00000000000000000000000000000000 D
b00000000000000010000000000000000 S
b00000000000000000000000000000000 [
b00000000000000000000000000000000 c
b00000000000000000000000000000000 d
b00000000000000010000000000000000 s
b00000000000000000000000000000000 {
b00000000000000000000000000000000 %!
b00000000000000000000000000000000 -!
b00000000000000000000000000000000 5!
b00000000000000000000000000000000 =!
b00000000000000000000000000000000 E!
b00000000000000000000000000000000 F!
b00000000000000000000000000000000 U!
b00000000000000000000000000000000 V!
b00000000000000000000000000000000 e!
b00000000000000000000000000000000 f!
b00000000000000000000000000000000 u!
b00000000000000000000000000000000 v!
b00000000000000000000000000000000 '"
b00000000000000000000000000000000 ("
b00000000000000000000000000000000 7"
b00000000000000000000000000000000 ?"
b00000000000000000000000000000000 G"
b00000000000000000000000000000000 O"
1W"
b000000000000000000000000000000000000000000000000 _"
b0000000000000000000000000000000000000000000000000000000000000000 o"
b000000000000000000000000000000000000000000000000 !#
b0000000000000000000000000000000000000000000000000000000000000000 1#
b000000000000000000000000000000000000000000000000 A#
b0000000000000000000000000000000000000000000000000000000000000000 Q#
b00000000000000000000000000000000 a#
b00000000000000000000000000000000 b#
b00000000000000000000000000000000 q#
b00000000000000000000000000000000 r#
b00000000000000000000000000000000 #$
b00000000000000000000000000000000 $$
b00000000000000000000000000000000 3$
b00000000000000000000000000000000 4$
b000000000000000000000000000000000000000000000000 C$
b000000000000000000000000000000000000000000000000 S$
b000000000000000000000000000000000000000000000000 c$
b00000000000000000000000000000000 s$
b00000000000000000000000000000000 {$
b00000000000000000000000000000000 %%
b00000000000000000000000000000000 -%
05%
06%
0E%
0F%
b00000000000000000000000000000000 U%
b00000000000000000000000000000000 V%
b00000000000000000000000000000000 e%
b00000000000000000000000000000000 f%
b00000000000000000000000000000000 u%
b00000000000000000000000000000000 v%
b00000000000000000000000000000000 '&
b00000000000000000000000000000000 (&
07&
0?&
0G&
0O&
0W&
0_&
0g&
0o&
b00 w&
b00 !'
b00000000000000000000000000000000 )'
b00000000000000000000000000000000 *'
09'
0:'
0I'
0J'
b00000000000000000000000000000000 Y'
b00000000000000000000000000000000 Z'
0i'
0j'
0y'
0z'
b00000000000000000000000000000000 +(
b00000000000000000000000000000000 ,(
0;(
0<(
0K(
0L(
0[(
0c(
b00000000000000000000000000000000 k(
b00000000000000000000000000000000 s(
0{(
0|(
0-)
0.)
0=)
0>)
0M)
0N)
0])
0e)
b00000000000000000000000000000000 m)
b00000000000000000000000000000000 u)
b00000000000000000000000000000000 })
b00000000000000000000000000000000 '*
0/*
b00000000000000000000000000000000 7*
b00000000000000000000000000000000 ?*
b00000000000000000000000000000000 G*
b00000000000000000000000000000000 O*
b00000000000000000000000000000000 W*
0_*
0g*
0o*
0w*
0!+
0)+
01+
b00000000000000000000000000000000 9+
b00000000000000000000000000000000 A+
b00000000000000000000000000000000 I+
b00000000000000000000000000000000 Q+
b00000000000000000000000000000000 Y+
b000000000000000000000000000000000000000000000000 a+
0q+
b00000000000000000000000000000000 y+
b000000000000000000000000000000000000000000000000 #,
03,
b00000000000000000000000000000000 ;,
b000000000000000000000000000000000000000000000000 C,
0S,
b000000000000000000000000000000000000000000000000 [,
b000000 k,
b000001 s,
b000000000000000000000000000000000000000000000000 {,
b000000 --
b000001 5-
b000000000000000000000000000000000000000000000000 =-
b000000 M-
b000001 U-
0]-
1e-
b0000000000000000000000000000000000000000000000000000000000000000 m-
0}-
0'.
b0000000000000000000000000000000000000000000000000000000000000000 /.
0?.
0G.
b00000000000000000000000000100000 O.
b00000000000000000000000000010000 W.
b00000000000000000000000000000010 _.
b00000000000000000000000000000010 g.
b00000000000000000000000000000010 o.
b00000000000000000000000000000000 w.
b00000000000000000000000000000001 !/
1)/
b00000000000000000000000000000000 1/
b00000000000000000000000000000000 9/
b00000000000000000000000000000000 A/
b00000000000000000000000000000000 I/
b00000000000000000000000000000000 Q/
b00000000000000000000000000000001 Y/
#100
15%
16%
1W&
1_&
b11 w&
1y'
1z'
1K(
1L(
1e)
1!+
1)+
11+
b000001 k,
b000010 s,
b000001 --
b000010 5-
b000001 M-
b000010 U-
1]-
1}-
#150
0]-
#200
1]-
#250
0]-
#300
1]-
#350
0]-
0e-
#400
1]-
#450
0]-
#500
1]-
#550
0]-
#600
1]-
#650
0]-
#700
1]-
#750
b00000000000000100000000000000000 s$
b00000000000000100000000000000000 {$
b00000000000000100000000000000000 U%
b00000000000000100000000000000000 V%
b00000000000000100000000000000000 u%
b00000000000000100000000000000000 v%
17&
1?&
1g&
1o&
b00000000000000100000000000000000 )'
b00000000000000100000000000000000 *'
19'
1:'
1I'
1J'
b00000000000000100000000000000000 Y'
b00000000000000100000000000000000 Z'
1i'
1j'
b00000000000000100000000000000000 +(
b00000000000000100000000000000000 ,(
1;(
1<(
1[(
1c(
b00000000000000100000000000000000 k(
b00000000000000100000000000000000 s(
1-)
1.)
1M)
1N)
0]-
b0000000000000010000000000000000000000000000000100000000000000000 m-
0}-
1'.
1?.
#800
b00000000000000100000000000000000 E!
b00000000000000100000000000000000 F!
0W"
b00000000000000100000000000000000 a#
b00000000000000100000000000000000 b#
b00000000000000100000000000000000 #$
b00000000000000100000000000000000 $$
b00000000000000100000000000000000 %%
b00000000000000100000000000000000 -%
05%
06%
b00000000000000100000000000000000 e%
b00000000000000100000000000000000 f%
b00000000000000100000000000000000 '&
b00000000000000100000000000000000 (&
0W&
0_&
b00 w&
0y'
0z'
0K(
0L(
0e)
b00000000000000100000000000000000 m)
b00000000000000100000000000000000 })
b00000000000000100000000000000000 O*
b00000000000000010000000000000000 W*
1w*
b00000000000000100000000000000000 A+
b00000000000000010000000000000000 Q+
1]-
b0000000000000010000000000000000000000000000000100000000000000000 /.
#850
0]-
#900
0w*
0!+
0)+
01+
b00000000000000010000000000000000 Y+
b000000000000000000000000000000100000000000000000 a+
b00000000000000010000000000000000 ;,
b000000000000000000000000000000100000000000000000 C,
b000000 k,
b000001 s,
b000000 --
b000001 5-
b000000 M-
b000001 U-
1]-
#950
0]-
#1000
b000001 k,
b000010 s,
b000001 --
b000010 5-
b000001 M-
b000010 U-
1]-
#1050
0]-
#1100
b000010 k,
b000011 s,
b000010 --
b000011 5-
b000010 M-
b000011 U-
1]-
#1150
0]-
#1200
b000011 k,
b000100 s,
b000011 --
b000100 5-
b000011 M-
b000100 U-
1]-
#1250
0]-
#1300
b000100 k,
b000101 s,
b000100 --
b000101 5-
b000100 M-
b000101 U-
1]-
#1350
0]-
#1400
b000101 k,
b000110 s,
b000101 --
b000110 5-
b000101 M-
b000110 U-
1]-
#1450
0]-
#1500
b000110 k,
b000111 s,
b000110 --
b000111 5-
b000110 M-
b000111 U-
1]-
#1550
0]-
#1600
b000111 k,
b001000 s,
b000111 --
b001000 5-
b000111 M-
b001000 U-
1]-
#1650
0]-
#1700
b001000 k,
b001001 s,
b001000 --
b001001 5-
b001000 M-
b001001 U-
1]-
#1750
0]-
#1800
b001001 k,
b001010 s,
b001001 --
b001010 5-
b001001 M-
b001010 U-
1]-
#1850
0]-
#1900
b001010 k,
b001011 s,
b001010 --
b001011 5-
b001010 M-
b001011 U-
1]-
#1950
0]-
#2000
b001011 k,
b001100 s,
b001011 --
b001100 5-
b001011 M-
b001100 U-
1]-
#2050
0]-
#2100
b001100 k,
b001101 s,
b001100 --
b001101 5-
b001100 M-
b001101 U-
1]-
#2150
0]-
#2200
b001101 k,
b001110 s,
b001101 --
b001110 5-
b001101 M-
b001110 U-
1]-
#2250
0]-
#2300
b001110 k,
b001111 s,
b001110 --
b001111 5-
b001110 M-
b001111 U-
1]-
#2350
0]-
#2400
b001111 k,
b010000 s,
b001111 --
b010000 5-
b001111 M-
b010000 U-
1]-
#2450
0]-
#2500
b000000000000001000000000000000000000000000000000 _"
b000000000000001000000000000000000000000000000000 A#
b000000000000001000000000000000000000000000000000 C$
b000000000000001000000000000000000000000000000000 c$
b010000 k,
b010001 s,
b010000 --
b010001 5-
b010000 M-
b010001 U-
1]-
#2550
0]-
#2600
b000000000000001000000000000000000000000000000000 [,
b010001 k,
b010010 s,
b010001 --
b010010 5-
b000000000000001000000000000000000000000000000000 =-
b010001 M-
b010010 U-
1]-
#2650
0]-
#2700
b010010 k,
b010011 s,
b010010 --
b010011 5-
b010010 M-
b010011 U-
1]-
#2750
0]-
#2800
b010011 k,
b010100 s,
b010011 --
b010100 5-
b010011 M-
b010100 U-
1]-
#2850
0]-
#2900
b010100 k,
b010101 s,
b010100 --
b010101 5-
b010100 M-
b010101 U-
1]-
#2950
0]-
#3000
b010101 k,
b010110 s,
b010101 --
b010110 5-
b010101 M-
b010110 U-
1]-
#3050
0]-
#3100
b010110 k,
b010111 s,
b010110 --
b010111 5-
b010110 M-
b010111 U-
1]-
#3150
0]-
#3200
b010111 k,
b011000 s,
b010111 --
b011000 5-
b010111 M-
b011000 U-
1]-
#3250
0]-
#3300
b011000 k,
b011001 s,
b011000 --
b011001 5-
b011000 M-
b011001 U-
1]-
#3350
0]-
#3400
b011001 k,
b011010 s,
b011001 --
b011010 5-
b011001 M-
b011010 U-
1]-
#3450
0]-
#3500
b011010 k,
b011011 s,
b011010 --
b011011 5-
b011010 M-
b011011 U-
1]-
#3550
0]-
#3600
b011011 k,
b011100 s,
b011011 --
b011100 5-
b011011 M-
b011100 U-
1]-
#3650
0]-
#3700
b011100 k,
b011101 s,
b011100 --
b011101 5-
b011100 M-
b011101 U-
1]-
#3750
0]-
#3800
b011101 k,
b011110 s,
b011101 --
b011110 5-
b011101 M-
b011110 U-
1]-
#3850
0]-
#3900
b011110 k,
b011111 s,
b011110 --
b011111 5-
b011110 M-
b011111 U-
1]-
#3950
0]-
#4000
1q+
13,
1S,
b011111 k,
b100000 s,
b011111 --
b100000 5-
b011111 M-
b100000 U-
1]-
#4050
0]-
#4100
b00000000000000100000000000000000 G"
b00000000000000100000000000000000 7*
b00000000000000100000000000000000 G*
1_*
1g*
1o*
0q+
03,
0S,
b100000 k,
b100001 s,
b100000 --
b100001 5-
b100000 M-
b100001 U-
1]-
#4150
0]-
#4200
1/*
1!+
1)+
11+
b100001 k,
b100010 s,
b100001 --
b100010 5-
b100001 M-
b100010 U-
1]-
#4250
0]-
#4300
b00000000000001000000000000000000 E!
b00000000000000000000000000000000 F!
1W"
b00000000000001000000000000000000 a#
b00000000000000000000000000000000 b#
b00000000000001000000000000000000 #$
b00000000000000000000000000000000 $$
b00000000000001000000000000000000 %%
b00000000000000000000000000000000 -%
1E%
1F%
b00000000000001000000000000000000 e%
b00000000000000000000000000000000 f%
b00000000000001000000000000000000 '&
b00000000000000000000000000000000 (&
1G&
1O&
b11 !'
1{(
1|(
1=)
1>)
1])
b00000000000001000000000000000000 m)
b00000000000000000000000000000000 })
1]-
b0000000000000000000000000000000000000000000001000000000000000000 /.
1G.
#4350
0]-
#4400
0W"
15%
16%
1W&
1_&
b11 w&
1y'
1z'
1K(
1L(
1e)
0/*
1w*
1]-
#4450
0g&
0o&
0I'
0J'
0c(
0-)
0.)
0M)
0N)
0]-
1}-
0?.
#4500
b00000000000000100000000000000000 E!
b00000000000000100000000000000000 F!
b000000000000000000000000000000000000000000000000 _"
b000000000000000000000000000000000000000000000000 A#
b00000000000000100000000000000000 a#
b00000000000000100000000000000000 b#
b00000000000000100000000000000000 #$
b00000000000000100000000000000000 $$
b000000000000000000000000000000000000000000000000 C$
b000000000000000000000000000000000000000000000000 c$
b00000000000000100000000000000000 %%
b00000000000000100000000000000000 -%
05%
06%
0E%
0F%
b00000000000000100000000000000000 e%
b00000000000000100000000000000000 f%
b00000000000000100000000000000000 '&
b00000000000000100000000000000000 (&
0G&
0O&
0W&
0_&
b00 w&
b00 !'
0y'
0z'
0K(
0L(
0{(
0|(
0=)
0>)
0])
0e)
b00000000000000100000000000000000 m)
b00000000000000100000000000000000 })
0_*
0g*
0o*
0w*
0!+
0)+
01+
b000000000000000000000000000000000000000000000000 [,
b000000 k,
b000001 s,
b000000 --
b000001 5-
b000000000000000000000000000000000000000000000000 =-
b000000 M-
b000001 U-
1]-
0}-
b0000000000000010000000000000000000000000000000100000000000000000 /.
0G.
#4550
07&
0?&
09'
0:'
0i'
0j'
0;(
0<(
0[(
0]-
0'.
#4600
b000001 k,
b000010 s,
b000001 --
b000010 5-
b000001 M-
b000010 U-
1]-
#4650
0]-
#4700
b000010 k,
b000011 s,
b000010 --
b000011 5-
b000010 M-
b000011 U-
1]-
#4750
0]-
#4800
b000011 k,
b000100 s,
b000011 --
b000100 5-
b000011 M-
b000100 U-
1]-
#4850
0]-
#4900
b000100 k,
b000101 s,
b000100 --
b000101 5-
b000100 M-
b000101 U-
1]-
